{"paging":{"page":1,"total":410254,"page_size":20,"pages":20513},"loans":[{"id":426739,"name":"Twungubumwe Group","description":{"languages":["fr","en"]},"status":"fundraising","funded_amount":0,"basket_amount":0,"image":{"id":1096443,"template_id":1},"activity":"Retail","sector":"Retail","use":"he will increase his capital and buy a large quantity of items for his boutique (rice, beans, soaps) to resell and increase his earnings.","location":{"country_code":"BI","country":"Burundi","town":"Bujumbura","geo":{"level":"country","pairs":"-3.5 30","type":"point"}},"partner_id":162,"posted_date":"2012-05-19T00:50:02Z","planned_expiration_date":"2012-06-18T00:50:02Z","loan_amount":2825,"borrower_count":39},{"id":427551,"name":"Kasaija","description":{"languages":["en"]},"status":"fundraising","funded_amount":0,"basket_amount":0,"image":{"id":1094440,"template_id":1},"activity":"General Store","sector":"Retail","use":" to buy general merchandise, such as soap and sugar, to sell","location":{"country_code":"UG","country":"Uganda","town":"Hoima","geo":{"level":"country","pairs":"2 33","type":"point"}},"partner_id":163,"posted_date":"2012-05-19T00:50:02Z","planned_expiration_date":"2012-06-18T00:50:02Z","loan_amount":825,"borrower_count":1},{"id":427550,"name":"Beatrice","description":{"languages":["en"]},"status":"fundraising","funded_amount":0,"basket_amount":0,"image":{"id":1098099,"template_id":1},"activity":"Fruits & Vegetables","sector":"Food","use":"to buy more mangoes, tree tomatoes, passion fruits and tomatoes to sell","location":{"country_code":"RW","country":"Rwanda","geo":{"level":"country","pairs":"-2 30","type":"point"}},"partner_id":161,"posted_date":"2012-05-19T00:40:03Z","planned_expiration_date":"2012-06-18T00:40:03Z","loan_amount":525,"borrower_count":1},{"id":424605,"name":"Yanet","description":{"languages":["es","en"]},"status":"fundraising","funded_amount":0,"basket_amount":0,"image":{"id":1092226,"template_id":1},"activity":"Agriculture","sector":"Agriculture","use":"to purchase seeds and fertilizer.","location":{"country_code":"PE","country":"Peru","town":"Chanchamayo","geo":{"level":"town","pairs":"-11.05 -75.316667","type":"point"}},"partner_id":71,"posted_date":"2012-05-19T00:40:02Z","planned_expiration_date":"2012-06-18T00:40:01Z","loan_amount":200,"borrower_count":1},{"id":427254,"name":"La Reforma 2, 3, 5 & 7 Group","description":{"languages":["en"]},"status":"fundraising","funded_amount":0,"basket_amount":0,"image":{"id":1097548,"template_id":1},"activity":"Fuel\/Firewood","sector":"Retail","use":"to buy more gallons of gasoline","location":{"country_code":"DO","country":"Dominican Republic","town":"San Pedro de Macor\u00eds","geo":{"level":"country","pairs":"19 -70.666667","type":"point"}},"partner_id":44,"posted_date":"2012-05-19T00:30:03Z","planned_expiration_date":"2012-06-18T00:30:03Z","loan_amount":6325,"borrower_count":20},{"id":427557,"name":"Marie Thess","description":{"languages":["en"]},"status":"fundraising","funded_amount":0,"basket_amount":0,"image":{"id":878764,"template_id":1},"activity":"General Store","sector":"Retail","use":"to buy stocks of canned goods, snacks, soap, shampoo and beverages.","location":{"country_code":"PH","country":"Philippines","geo":{"level":"country","pairs":"13 122","type":"point"}},"partner_id":128,"posted_date":"2012-05-19T00:30:03Z","planned_expiration_date":"2012-06-18T00:30:03Z","loan_amount":250,"borrower_count":1},{"id":426725,"name":"Ousmane","description":{"languages":["fr","en"]},"status":"fundraising","funded_amount":0,"basket_amount":0,"image":{"id":1096425,"template_id":1},"activity":"Metal Shop","sector":"Manufacturing","use":"to buy iron and steel sheets to manufacture windows and doors for resale.","location":{"country_code":"SN","country":"Senegal","geo":{"level":"country","pairs":"14 -14","type":"point"}},"partner_id":108,"posted_date":"2012-05-19T00:30:01Z","planned_expiration_date":"2012-06-18T00:30:01Z","loan_amount":975,"borrower_count":1},{"id":427556,"name":"Simon","description":{"languages":["en"]},"status":"fundraising","funded_amount":0,"basket_amount":0,"image":{"id":1098107,"template_id":1},"activity":"Fruits & Vegetables","sector":"Food","use":"to buy more fruits to sell.","location":{"country_code":"RW","country":"Rwanda","geo":{"level":"country","pairs":"-2 30","type":"point"}},"partner_id":161,"posted_date":"2012-05-19T00:20:06Z","planned_expiration_date":"2012-06-18T00:20:06Z","loan_amount":675,"borrower_count":1},{"id":427554,"name":"Kaingu","description":{"languages":["en"]},"status":"fundraising","funded_amount":0,"basket_amount":0,"image":{"id":868558,"template_id":1},"activity":"Motorcycle Transport","sector":"Transportation","use":"to purchase a motorbike.","location":{"country_code":"KE","country":"Kenya","town":"Kisauni","geo":{"level":"country","pairs":"1 38","type":"point"}},"partner_id":164,"posted_date":"2012-05-19T00:20:03Z","planned_expiration_date":"2012-06-18T00:20:02Z","loan_amount":600,"borrower_count":1},{"id":427553,"name":"Cherus","description":{"languages":["en"]},"status":"fundraising","funded_amount":0,"basket_amount":0,"image":{"id":1093170,"template_id":1},"activity":"Food Production\/Sales","sector":"Food","use":"to purchase sugar, flour and bananas for her snack vending business.","location":{"country_code":"PH","country":"Philippines","town":"Oroquieta City, Misamis Occidental","geo":{"level":"country","pairs":"13 122","type":"point"}},"partner_id":126,"posted_date":"2012-05-19T00:10:03Z","planned_expiration_date":"2012-06-18T00:10:03Z","loan_amount":75,"borrower_count":1},{"id":424600,"name":"Olga","description":{"languages":["es","en"]},"status":"fundraising","funded_amount":0,"basket_amount":0,"image":{"id":1092219,"template_id":1},"activity":"Agriculture","sector":"Agriculture","use":"to buy seeds and fertilizer.","location":{"country_code":"PE","country":"Peru","town":"Chanchamayo","geo":{"level":"town","pairs":"-11.05 -75.316667","type":"point"}},"partner_id":71,"posted_date":"2012-05-19T00:10:02Z","planned_expiration_date":"2012-06-18T00:10:02Z","loan_amount":775,"borrower_count":1},{"id":424599,"name":"Ruth","description":{"languages":["es","en"]},"status":"fundraising","funded_amount":0,"basket_amount":0,"image":{"id":1092218,"template_id":1},"activity":"Grocery Store","sector":"Food","use":"to buy merchandise for resale.","location":{"country_code":"PE","country":"Peru","town":"Chanchamayo","geo":{"level":"town","pairs":"-11.05 -75.316667","type":"point"}},"partner_id":71,"posted_date":"2012-05-19T00:00:33Z","planned_expiration_date":"2012-06-18T00:00:33Z","loan_amount":400,"borrower_count":1},{"id":427249,"name":"El Tesoro Group","description":{"languages":["en"]},"status":"fundraising","funded_amount":0,"basket_amount":0,"image":{"id":1098380,"template_id":1},"activity":"Retail","sector":"Retail","use":"To buy clothes, underwear, cosmetics, etc. for resale","location":{"country_code":"DO","country":"Dominican Republic","town":"San Pedro de Macor\u00eds","geo":{"level":"country","pairs":"19 -70.666667","type":"point"}},"partner_id":44,"posted_date":"2012-05-19T00:00:33Z","planned_expiration_date":"2012-06-18T00:00:33Z","loan_amount":5250,"borrower_count":25},{"id":424418,"name":"Lorena Elizabeth","description":{"languages":["es","en"]},"status":"fundraising","funded_amount":0,"basket_amount":0,"image":{"id":1091832,"template_id":1},"activity":"Personal Products Sales","sector":"Retail","use":"to buy cosmetics and plated jewelry.  ","location":{"country_code":"SV","country":"El Salvador","geo":{"level":"country","pairs":"13.833333 -88.916667","type":"point"}},"partner_id":167,"posted_date":"2012-05-19T00:00:32Z","planned_expiration_date":"2012-06-18T00:00:32Z","loan_amount":600,"borrower_count":1},{"id":424452,"name":"La Fuente De Bendicion 7 Group","description":{"languages":["en"]},"status":"fundraising","funded_amount":0,"basket_amount":0,"image":{"id":1091888,"template_id":1},"activity":"Clothing Sales","sector":"Clothing","use":"To buy clothes, shoes, and other miscellaneous products.","location":{"country_code":"DO","country":"Dominican Republic","town":"Hato Mayor","geo":{"level":"town","pairs":"18.833333 -69.333333","type":"point"}},"partner_id":44,"posted_date":"2012-05-19T00:00:32Z","planned_expiration_date":"2012-06-18T00:00:32Z","loan_amount":4975,"borrower_count":5},{"id":424598,"name":"Raquel","description":{"languages":["es","en"]},"status":"fundraising","funded_amount":0,"basket_amount":0,"image":{"id":1092213,"template_id":1},"activity":"Grocery Store","sector":"Food","use":"to buy merchandise for resale.","location":{"country_code":"PE","country":"Peru","town":"Chanchamayo","geo":{"level":"town","pairs":"-11.05 -75.316667","type":"point"}},"partner_id":71,"posted_date":"2012-05-19T00:00:32Z","planned_expiration_date":"2012-06-18T00:00:32Z","loan_amount":775,"borrower_count":1},{"id":423162,"name":"Blanca Rosa","description":{"languages":["es","en"]},"status":"fundraising","funded_amount":0,"basket_amount":0,"image":{"id":912375,"template_id":1},"activity":"Agriculture","sector":"Agriculture","use":"to provide crop maintenance and to plant basic grains.","location":{"country_code":"HN","country":"Honduras","town":"La Boquita, Santa Cruz de Yojoa","geo":{"level":"country","pairs":"15 -86.5","type":"point"}},"partner_id":201,"posted_date":"2012-05-19T00:00:04Z","planned_expiration_date":"2012-06-18T00:00:03Z","loan_amount":525,"borrower_count":1},{"id":423555,"name":"Juan Carlos","description":{"languages":["es","en"]},"status":"fundraising","funded_amount":0,"basket_amount":0,"image":{"id":1089878,"template_id":1},"activity":"Agriculture","sector":"Agriculture","use":"to buy fertilizer and plants.","location":{"country_code":"MX","country":"Mexico","town":"Huatusco","geo":{"level":"country","pairs":"23 -102","type":"point"}},"partner_id":224,"posted_date":"2012-05-18T23:50:03Z","planned_expiration_date":"2012-06-17T23:50:03Z","loan_amount":925,"borrower_count":1},{"id":423570,"name":"Deisy De La Paz","description":{"languages":["es","en"]},"status":"fundraising","funded_amount":0,"basket_amount":100,"image":{"id":1089923,"template_id":1},"activity":"Food Production\/Sales","sector":"Food","use":"to buy corn, bananas, potatoes, oil and condiments.","location":{"country_code":"SV","country":"El Salvador","geo":{"level":"country","pairs":"13.833333 -88.916667","type":"point"}},"partner_id":167,"posted_date":"2012-05-18T23:50:03Z","planned_expiration_date":"2012-06-17T23:50:03Z","loan_amount":200,"borrower_count":1},{"id":427530,"name":"Berthilde","description":{"languages":["en"]},"status":"fundraising","funded_amount":25,"basket_amount":25,"image":{"id":1098081,"template_id":1},"activity":"Charcoal Sales","sector":"Retail","use":"To buy more charcoal to sell","location":{"country_code":"RW","country":"Rwanda","geo":{"level":"country","pairs":"-2 30","type":"point"}},"partner_id":161,"posted_date":"2012-05-18T23:50:03Z","planned_expiration_date":"2012-06-17T23:50:03Z","loan_amount":600,"borrower_count":1}]}